Shrinkage Methods and Hyperparameter tunning
…
biomass_scaled <- biomass %>%
  select(where(is.numeric)) %>%
  scale() %>%
  as_tibble()
```
]

.pull-right[

```r
biomass_scaled
```

```
## # A tibble: 536 x 6
##     carbon hydrogen  oxygen nitrogen  sulfur     HHV
##      <dbl>    <dbl>   <dbl>    <dbl>   <dbl>   <dbl>
##  1  0.149    0.152   0.404   -0.561  -0.482   0.227 
##  2  0.118    0.202   0.252   -0.737  -0.482   0.0188
##  3 -0.0466   0.285   0.711   -0.813  -0.441  -0.229 
##  4 -0.314   -0.408  -0.275    1.87   -0.152  -0.268 
##  5 -0.151   -0.0489  0.199   -0.0649 -0.441  -0.188 
##  6 -0.284    0.243   0.151    0.809  -0.276  -0.184 
##  7 -0.110    0.444  -0.0354   1.35   -0.0694 -0.130 
##  8 -0.255    0.202   0.104    0.524  -0.0694 -0.236 
##  9  0.0497   0.0346  0.215   -0.233  -0.482  -0.140 
## 10 -0.117    0.369   0.132    0.103  -0.276  -0.0816
## # … with 526 more rows
```
…
<img src="index_files/figure-html/unnamed-chunk-6-1.png" width="700px" style="display: block; margin: auto;" />

---

# Predicting for a Ridge Regression model

```r
predict(ridge_fit, new_data = biomass_scaled)
```

```
## # A tibble: 536 x 1
##      .pred
##      <dbl>
##  1  0.106 
##  2  0.0993
##  3 -0.0543
##  4 -0.337 
##  5 -0.157 
##  6 -0.262 
##  7 -0.0995
##  8 -0.220 
##  9  0.0167
## 10 -0.0916
## # … with 526 more rows
```

---

# Predicting for a Ridge Regression model

Specifying a value lets up predict

```r
predict(ridge_fit, new_data = biomass_scaled, penalty = 100)
```

```
## # A tibble: 536 x 1
##        .pred
##        <dbl>
##  1 -0.000760
##  2 -0.000103
##  3 -0.00406 
##  4 -0.00313 
##  5 -0.00260 
##  6 -0.00515 
##  7 -0.00353 
##  8 -0.00401 
##  9 -0.000851
## 10 -0.00287 
## # … with 526 more rows
```
…
We could also specify the penalty directly when we fit the model, but there is not as often a usecase for this

```r
ridge_spec <- linear_reg(mixture = 0, penalty = 100) %>%
  set_engine("glmnet")

ridge_fit <- ridge_spec %>%
  fit(HHV ~ ., data = biomass_scaled)

predict(ridge_fit, new_data = biomass_scaled)
```

```
## # A tibble: 536 x 1
##        .pred
##        <dbl>
##  1 -0.000760
##  2 -0.000103
##  3 -0.00406 
##  4 -0.00313 
##  5 -0.00260 
##  6 -0.00515 
##  7 -0.00353 
##  8 -0.00401 
##  9 -0.000851
## 10 -0.00287 
## # … with 526 more rows
```
…
---

# Hyperparameter Tuning

We also need to specify what values of the hyperparameters we are trying to tune we want to calculate. Since the lasso model can calculate all paths at once let us get back 50 evenly spaced values of `\(\lambda\)`

```r
lambda_grid <- grid_regular(penalty(), levels = 50)
lambda_grid
```

```
## # A tibble: 50 x 1
##     penalty
##       <dbl>
##  1 1   e-10
##  2 1.60e-10
##  3 2.56e-10
##  4 4.09e-10
##  5 6.55e-10
##  6 1.05e- 9
##  7 1.68e- 9
##  8 2.68e- 9
##  9 4.29e- 9
## 10 6.87e- 9
## # … with 40 more rows
```
…
---

# Hyperparameter Tuning

We can see how each of the values of `\(\lambda\)` is doing with `collect_metrics()`

```r
collect_metrics(tune_rs)
```

```
## # A tibble: 100 x 7
##     penalty .metric .estimator  mean     n std_err .config              
##       <dbl> <chr>   <chr>      <dbl> <int>   <dbl> <chr>                
##  1 1   e-10 rmse    standard   1.53      5  0.258  Preprocessor1_Model01
##  2 1   e-10 rsq     standard   0.833     5  0.0455 Preprocessor1_Model01
##  3 1.60e-10 rmse    standard   1.53      5  0.258  Preprocessor1_Model02
##  4 1.60e-10 rsq     standard   0.833     5  0.0455 Preprocessor1_Model02
##  5 2.56e-10 rmse    standard   1.53      5  0.258  Preprocessor1_Model03
##  6 2.56e-10 rsq     standard   0.833     5  0.0455 Preprocessor1_Model03
##  7 4.09e-10 rmse    standard   1.53      5  0.258  Preprocessor1_Model04
##  8 4.09e-10 rsq     standard   0.833     5  0.0455 Preprocessor1_Model04
##  9 6.55e-10 rmse    standard   1.53      5  0.258  Preprocessor1_Model05
## 10 6.55e-10 rsq     standard   0.833     5  0.0455 Preprocessor1_Model05
## # … with 90 more rows
```
…
---

# Hyperparameter Tuning

this fitted model can now be used to predict on the testing data set

```r
biomass_test <- training(biomass_split)

predict(fitted_lasso, biomass_test)
```

```
## # A tibble: 402 x 1
##    .pred
##    <dbl>
##  1  19.1
##  2  28.5
##  3  22.1
##  4  19.1
##  5  19.2
##  6  17.3
##  7  18.3
##  8  19.1
##  9  19.4
## 10  15.9
## # … with 392 more rows
```
…
