Resampling Methods
…
# Example

We want to minimize

`$$\alpha = \dfrac{\sigma^2_Y - \sigma_{XY}}{\sigma^2_X + \sigma^2_Y - 2\sigma_{XY}}$$`

Where `\(\sigma^2_X = \text{Var}(X)\)`, `\(\sigma^2_Y = \text{Var}(Y)\)`, and `\(\sigma_{XY} = \text{Cov}(X, Y)\)`

---

# Bootstrapping results

```
## # A tibble: 1,000 x 5
##    id            var_x var_y cov_xy estimate
##    <chr>         <dbl> <dbl>  <dbl>    <dbl>
##  1 Bootstrap0001 0.972  1.09  0.472    0.555
##  2 Bootstrap0002 1.29   1.52  0.806    0.593
##  3 Bootstrap0003 1.10   1.25  0.481    0.554
##  4 Bootstrap0004 1.38   1.33  0.514    0.485
##  5 Bootstrap0005 1.44   1.22  0.603    0.424
##  6 Bootstrap0006 0.919  1.01  0.269    0.533
##  7 Bootstrap0007 1.26   1.18  0.409    0.475
##  8 Bootstrap0008 1.16   1.21  0.457    0.520
##  9 Bootstrap0009 1.29   1.19  0.505    0.468
## 10 Bootstrap0010 1.53   1.33  0.699    0.431
## # … with 990 more rows
```
…
.pull-left[
We can use the `bootstraps()` function on a data.frame to create a `bootstraps` object

```r
mtcars_boots <- bootstraps(mtcars, times = 100)
mtcars_boots
```
]

.pull-right[

```
## # Bootstrap sampling 
## # A tibble: 100 x 2
##    splits          id          
##    <list>          <chr>       
##  1 <split [32/13]> Bootstrap001
##  2 <split [32/13]> Bootstrap002
##  3 <split [32/11]> Bootstrap003
##  4 <split [32/11]> Bootstrap004
##  5 <split [32/10]> Bootstrap005
##  6 <split [32/11]> Bootstrap006
##  7 <split [32/13]> Bootstrap007
##  8 <split [32/13]> Bootstrap008
##  9 <split [32/13]> Bootstrap009
## 10 <split [32/10]> Bootstrap010
## # … with 90 more rows
```
…
---

# Tune

The results of this resampling comes as a data.frame

```r
linear_fold_fits
```

```
## # Resampling results
## # Bootstrap sampling 
## # A tibble: 100 x 4
##    splits          id           .metrics             .notes              
##    <list>          <chr>        <list>               <list>              
##  1 <split [32/12]> Bootstrap001 <tibble[,4] [2 × 4]> <tibble[,1] [0 × 1]>
##  2 <split [32/14]> Bootstrap002 <tibble[,4] [2 × 4]> <tibble[,1] [0 × 1]>
##  3 <split [32/15]> Bootstrap003 <tibble[,4] [2 × 4]> <tibble[,1] [0 × 1]>
##  4 <split [32/11]> Bootstrap004 <tibble[,4] [2 × 4]> <tibble[,1] [0 × 1]>
##  5 <split [32/12]> Bootstrap005 <tibble[,4] [2 × 4]> <tibble[,1] [0 × 1]>
##  6 <split [32/8]>  Bootstrap006 <tibble[,4] [2 × 4]> <tibble[,1] [0 × 1]>
##  7 <split [32/11]> Bootstrap007 <tibble[,4] [2 × 4]> <tibble[,1] [0 × 1]>
##  8 <split [32/11]> Bootstrap008 <tibble[,4] [2 × 4]> <tibble[,1] [0 × 1]>
##  9 <split [32/15]> Bootstrap009 <tibble[,4] [2 × 4]> <tibble[,1] [0 × 1]>
## 10 <split [32/12]> Bootstrap010 <tibble[,4] [2 × 4]> <tibble[,1] [0 × 1]>
## # … with 90 more rows
```
…
---

# Tune

Setting `summarize = FALSE` in `collect_metrics()` Allows us the see the individual performance metrics for each fold

```r
collect_metrics(linear_fold_fits, summarize = FALSE)
```

```
## # A tibble: 200 x 5
##    id           .metric .estimator .estimate .config             
##    <chr>        <chr>   <chr>          <dbl> <chr>               
##  1 Bootstrap001 rmse    standard       3.84  Preprocessor1_Model1
##  2 Bootstrap001 rsq     standard       0.851 Preprocessor1_Model1
##  3 Bootstrap002 rmse    standard       2.94  Preprocessor1_Model1
##  4 Bootstrap002 rsq     standard       0.726 Preprocessor1_Model1
##  5 Bootstrap003 rmse    standard       4.15  Preprocessor1_Model1
##  6 Bootstrap003 rsq     standard       0.822 Preprocessor1_Model1
##  7 Bootstrap004 rmse    standard       2.88  Preprocessor1_Model1
##  8 Bootstrap004 rsq     standard       0.794 Preprocessor1_Model1
##  9 Bootstrap005 rmse    standard       2.66  Preprocessor1_Model1
## 10 Bootstrap005 rsq     standard       0.866 Preprocessor1_Model1
## # … with 190 more rows
```
