Linear Regression
…
---

# Tidy prediction

```r
predict(fit_lm, mtcars)
```

```
## # A tibble: 32 × 1
##    .pred
##    <dbl>
##  1  22.5
##  2  22.7
##  3  24.9
##  4  18.6
##  5  14.6
##  6  19.2
##  7  14.3
##  8  23.8
##  9  25.7
## 10  23.0
## # … with 22 more rows
```
